IDW model for short-term and long-term sensors
…
Reasonably similar, especially given their slight geographic distance.

stats on October sensor data

pm25 %>%
  filter(datetime>as.Date("2017-10-1"), datetime<as.Date("2017-10-31")) %>%
  group_by(name) %>%
  summarize("n of measurements" = n(), mean = mean(value), min = min(value), Q1 = quantile(value, .25), median = median(value), Q3 = quantile(value, .75), max = max(value)) %>%
  arrange(desc(mean))

## # A tibble: 24 x 8
##    name                          `n o~  mean   min    Q1 medi~    Q3   max
##    <chr>                         <int> <dbl> <dbl> <dbl> <dbl> <dbl> <dbl>
##  1 Napa-Jefferson Avenue          1360  37.2  0     8.00 11.0   21.0   420
##  2 ARB 1023 Napa                   461  26.6  0     3.00  7.00  17.0   386
##  3 ARB 37 Rincon VMS 2nd Monitor   458  24.4  0     2.00  7.00  19.0   327
##  4 Vallejo-304 Tuolumne Street     709  21.8  1.00  7.00 11.0   18.0   435
##  5 Oakland-Laney College           708  20.6  0    10.0  15.0   21.0   135
##  6 San Pablo-Rumrill Blvd          667  19.8  1.00  7.00 11.0   17.0   241
##  7 Concord-2975 Treat Blvd         709  19.6  3.00  9.00 12.0   18.0   218
##  8 Oakland-West                    675  19.2  0     9.00 14.0   21.0   123
##  9 Ukiah-County Library            640  18.5  0     4.00  7.00  20.0   282
## 10 ARB 32 Cotati                   436  17.9  0     6.00 13.5   23.0   172
## # ... with 14 more rows
…
